181
a10a
a10c
a4e
a4su
a50
a6e
a7e
ac130h
amx
an124
an2
an24
an72
av8b+
av8b
b1b
b2a
b52g
b52h
c130
c141
c160d
c160rag
c160rng
c160t
c17
c5
cf18a
e2c
e3a
e8c
ea18g
ea6b
ef111a
ef18m
ef2000
f104dj
f104s
f111e
f111f
f117a
f14a
f14b
f14d
f15a
f15c
f15ciaf
f15cj
f15d
f15dj
f15e220
f15e229
f15i
f15k
f16abk15il
f16ambe
f16amdk
f16amjo
f16amnl
f16amno
f16b15
f16bbk15il
f16bk15
f16bk25
f16bk30
f16bk30agrs
f16bk32
f16bk32agrs
f16bk40
f16bk42
f16bk50
f16bk52+
f16bk52+cft
f16bk52
f16cbk30il
f16cbk32eg
f16cbk40eg
f16cbk40il
f16cbk52+eg
f16d52+rsaf
f16dbk30il
f16dbk40il
f16dm40
f16dm52
f16ibk52+cftil
f16ibk52+il
f18a+agrs
f18a
f18b
f18c
f18d
f18e
f18f
f22a
rf4c
f4erok
f4ej
f4g
f5e
fa2
g4
il28
il76m
il78m
j5
j7
j8
ja37
jaguargr3
kc10
kc135r
kf16bk32
kf16bk52
mb339
mig17pf
mig19pm
mig19sf
mig21f13
mig21mbis
mig21mf
mig23ml
mig25
mig27
mig29a
mig29g
mig29m
mig29s
mig31
mirage2k5
mirage2kc
mirage2kd
mirage2kegm
mirage2kn
miragef1ct
mirageIIIe
mv22
ov10d
q5n
rafalec
rc135w
sr71
su15
su17
su24
su25
su27
su27ub
su30m
su30mkk
su33
su34
su35
f18craaf
su39
su7bkl
tornf3
tornecr
torngr1
torngr4
tornids
tu16
tu160
tu16n
tu22m
tu95
u2
a4ptm
a4eagrs
j6b
su22
kc135e
mirage2k9
fck1c
kdc10
f4f
f4drok
f5a
falcon50
TB30
C101
AJet